1 10 20
100 200 125
201 210 89
900 1000 174
1 1 1
1 10000 262
1 2 2
9999 10000 92
10 1 20
10000 1 262
2 1 2
10000 9999 92
200 100 125
210 201 89
1000 900 174
1 999999 525
999999 1 525
999998 999999 259
999999 999998 259
10 999999 525
10000 999999 525
999999 10000 525
999999 999999 259
9999 9999 92
64 9999 262
500 9999 262
234872 413254 449
123425 9324 354
351523 123434 443
940652 123434 525
10 20 21
1543 2341 183
423857 135487 449
2 2 2
246893 243589 337
5000 100000 351
1435 1354 172
4362 1331 238
4315 4362 184
1243 1235 133
5924 2314 238
135948 534698 470
695834 423959 509
549876 134589 470
854362 198347 525
254892 354987 441
685944 583479 509
984932 534867 525
132947 243567 443
138259 138495 313
134758 134879 300
137854 123040 344
243578 283495 407
250894 123489 443
934503 198347 525
354980 103489 443
530496 543608 408
234699 439260 449
423960 243567 449
423950 294057 449
420967 824357 509
9437 1843 262
3210 4398 238
2034 1493 180
2560 1350 209
549 1345 182
831 934 179
926 246 179
1023 3541 217
6359 1320 262
5946 100 238
4309 213 238
4035 243 238
345 348 126
231 345 144
436 234 144
435 234 144
563 234 144
546 67 144
145390 123404 375
356408 123453 443
905348 134043 525
809243 258394 509
456970 103489 449
123443 543608 470
123489 324598 443
248395 123840 443
234967 294057 407
134599 324859 443
143957 435890 449
254839 213490 443
234597 123481 443
59436 803457 509
245968 294580 407
902452 392483 525
234950 902435 525
902345 123840 525
209458 920452 525
925083 423985 525
23495 423905 449
243952 924735 525
920345 923482 445
934285 432958 525
932423 938452 445
402395 301984 441
804312 310452 509
384952 403252 436
342852 901345 525
123509 235802 443
